"id","fk_region","fk_commune_cheflieu","fk_tncc","ncc","nccenr"
"01","82","01053","5","AIN","Ain"
"02","22","02408","5","AISNE","Aisne"
"03","83","03190","5","ALLIER","Allier"
"04","93","04070","4","ALPES-DE-HAUTE-PROVENCE","Alpes-de-Haute-Provence"
"05","93","05061","4","HAUTES-ALPES","Hautes-Alpes"
"06","93","06088","4","ALPES-MARITIMES","Alpes-Maritimes"
"07","82","07186","5","ARDECHE","Ardèche"
"08","21","08105","4","ARDENNES","Ardennes"
"09","73","09122","5","ARIEGE","Ariège"
"10","21","10387","5","AUBE","Aube"
"11","91","11069","5","AUDE","Aude"
"12","73","12202","5","AVEYRON","Aveyron"
"13","93","13055","4","BOUCHES-DU-RHONE","Bouches-du-Rhône"
"14","25","14118","2","CALVADOS","Calvados"
"15","83","15014","2","CANTAL","Cantal"
"16","54","16015","3","CHARENTE","Charente"
"17","54","17300","3","CHARENTE-MARITIME","Charente-Maritime"
"18","24","18033","2","CHER","Cher"
"19","74","19272","3","CORREZE","Corrèze"
"21","26","21231","3","COTE-D'OR","Côte-d'Or"
"22","53","22278","4","COTES-D'ARMOR","Côtes-d'Armor"
"23","74","23096","3","CREUSE","Creuse"
"24","72","24322","3","DORDOGNE","Dordogne"
"25","43","25056","2","DOUBS","Doubs"
"26","82","26362","3","DROME","Drôme"
"27","23","27229","5","EURE","Eure"
"28","24","28085","1","EURE-ET-LOIR","Eure-et-Loir"
"29","53","29232","2","FINISTERE","Finistère"
"2A","94","2A004","3","CORSE-DU-SUD","Corse-du-Sud"
"2B","94","2B033","3","HAUTE-CORSE","Haute-Corse"
"30","91","30189","2","GARD","Gard"
"31","73","31555","3","HAUTE-GARONNE","Haute-Garonne"
"32","73","32013","2","GERS","Gers"
"33","72","33063","3","GIRONDE","Gironde"
"34","91","34172","5","HERAULT","Hérault"
"35","53","35238","1","ILLE-ET-VILAINE","Ille-et-Vilaine"
"36","24","36044","5","INDRE","Indre"
"37","24","37261","1","INDRE-ET-LOIRE","Indre-et-Loire"
"38","82","38185","5","ISERE","Isère"
"39","43","39300","2","JURA","Jura"
"40","72","40192","4","LANDES","Landes"
"41","24","41018","0","LOIR-ET-CHER","Loir-et-Cher"
"42","82","42218","3","LOIRE","Loire"
"43","83","43157","3","HAUTE-LOIRE","Haute-Loire"
"44","52","44109","3","LOIRE-ATLANTIQUE","Loire-Atlantique"
"45","24","45234","2","LOIRET","Loiret"
"46","73","46042","2","LOT","Lot"
"47","72","47001","0","LOT-ET-GARONNE","Lot-et-Garonne"
"48","91","48095","3","LOZERE","Lozère"
"49","52","49007","0","MAINE-ET-LOIRE","Maine-et-Loire"
"50","25","50502","3","MANCHE","Manche"
"51","21","51108","3","MARNE","Marne"
"52","21","52121","3","HAUTE-MARNE","Haute-Marne"
"53","52","53130","3","MAYENNE","Mayenne"
"54","41","54395","0","MEURTHE-ET-MOSELLE","Meurthe-et-Moselle"
"55","41","55029","3","MEUSE","Meuse"
"56","53","56260","2","MORBIHAN","Morbihan"
"57","41","57463","3","MOSELLE","Moselle"
"58","26","58194","3","NIEVRE","Nièvre"
"59","31","59350","2","NORD","Nord"
"60","22","60057","5","OISE","Oise"
"61","25","61001","5","ORNE","Orne"
"62","31","62041","2","PAS-DE-CALAIS","Pas-de-Calais"
"63","83","63113","2","PUY-DE-DOME","Puy-de-Dôme"
"64","72","64445","4","PYRENEES-ATLANTIQUES","Pyrénées-Atlantiques"
"65","73","65440","4","HAUTES-PYRENEES","Hautes-Pyrénées"
"66","91","66136","4","PYRENEES-ORIENTALES","Pyrénées-Orientales"
"67","42","67482","2","BAS-RHIN","Bas-Rhin"
"68","42","68066","2","HAUT-RHIN","Haut-Rhin"
"69","82","69123","2","RHONE","Rhône"
"70","43","70550","3","HAUTE-SAONE","Haute-Saône"
"71","26","71270","0","SAONE-ET-LOIRE","Saône-et-Loire"
"72","52","72181","3","SARTHE","Sarthe"
"73","82","73065","3","SAVOIE","Savoie"
"74","82","74010","3","HAUTE-SAVOIE","Haute-Savoie"
"75","11","75056","0","PARIS","Paris"
"76","23","76540","3","SEINE-MARITIME","Seine-Maritime"
"77","11","77288","0","SEINE-ET-MARNE","Seine-et-Marne"
"78","11","78646","4","YVELINES","Yvelines"
"79","54","79191","4","DEUX-SEVRES","Deux-Sèvres"
"80","22","80021","3","SOMME","Somme"
"81","73","81004","2","TARN","Tarn"
"82","73","82121","0","TARN-ET-GARONNE","Tarn-et-Garonne"
"83","93","83137","2","VAR","Var"
"84","93","84007","0","VAUCLUSE","Vaucluse"
"85","52","85191","3","VENDEE","Vendée"
"86","54","86194","3","VIENNE","Vienne"
"87","74","87085","3","HAUTE-VIENNE","Haute-Vienne"
"88","41","88160","4","VOSGES","Vosges"
"89","26","89024","5","YONNE","Yonne"
"90","43","90010","0","TERRITOIRE DE BELFORT","Territoire de Belfort"
"91","11","91228","5","ESSONNE","Essonne"
"92","11","92050","4","HAUTS-DE-SEINE","Hauts-de-Seine"
"93","11","93008","3","SEINE-SAINT-DENIS","Seine-Saint-Denis"
"94","11","94028","2","VAL-DE-MARNE","Val-de-Marne"
"95","11","95500","2","VAL-D'OISE","Val-d'Oise"
"971","01","97105","3","GUADELOUPE","Guadeloupe"
"972","02","97209","3","MARTINIQUE","Martinique"
"973","03","97302","3","GUYANE","Guyane"
"974","04","97411","0","LA REUNION","La Réunion"
"975","05","97502","0","SAINT-PIERRE-ET-MIQUELON","Saint-Pierre-et-Miquelon"
