"id","fk_pays","fk_commune_cheflieu","fk_tncc","ncc","nccenr"
"01","99100","97105","3","GUADELOUPE","Guadeloupe"
"02","99100","97209","3","MARTINIQUE","Martinique"
"03","99100","97302","3","GUYANE","Guyane"
"04","99100","97411","0","LA REUNION","La Réunion"
"05","99100","97502","0","SAINT PIERRE ET MIQUELON","Saint-Pierre-et-Miquelon"
"06","99100","97611","0","MAYOTTE","Mayotte"
"07","99100","97701","0","SAINT BARTHELEMY","Saint-Barthélemy"
"08","99100","97801","0","SAINT MARTIN","Saint-Martin"
"11","99100","75056","1","ILE DE FRANCE","Île-de-France"
"14","99100","98411","4","TERRES AUSTRALES ET ANTARCTIQUES FRANCAISES","Terres australes et antarctiques françaises"
"16","99100","98613","0","WALLIS ET FUTUNA","Wallis-et-Futuna"
"17","99100","98735","0","POLYNESIE FRANCAISE","Polynésie française"
"18","99100","98818","0","NOUVELLE CALEDONIE","Nouvelle-Calédonie"
"19","99100","98901","0","LA PASSION CLIPPERTON","La Passion-Clipperton"
"24","99100","45234","2","CENTRE VAL DE LOIRE","Centre-Val de Loire"
"27","99100","21231","0","BOURGOGNE FRANCHE COMTE","Bourgogne-Franche-Comté"
"28","99100","76540","0","NORMANDIE","Normandie"
"32","99100","59350","4","HAUTS DE FRANCE","Hauts-de-France"
"44","99100","67482","2","GRAND EST","Grand Est"
"52","99100","44109","4","PAYS DE LA LOIRE","Pays de la Loire"
"53","99100","35238","0","BRETAGNE","Bretagne"
"75","99100","33063","3","NOUVELLE AQUITAINE","Nouvelle-Aquitaine"
"76","99100","31555","1","OCCITANIE","Occitanie"
"84","99100","69123","1","AUVERGNE RHONE ALPES","Auvergne-Rhône-Alpes"
"93","99100","13055","0","PROVENCE ALPES COTE D AZUR","Provence-Alpes-Côte d'Azur"
"94","99100","2A004","0","CORSE","Corse"
