"id","libelle"
"1","Canton composé de commune(s) entière(s)"
"2","Canton composé d'une fraction d'une commune et de commune(s) entière(s)"
"3","Canton composé d'une fraction de plusieurs communes et de commune(s) entière(s)"
"4","Canton composé d'une fraction de commune"
"5","Canton composé de fractions de plusieurs communes"
