"id","fk_region","fk_commune_cheflieu","fk_tncc","ncc","nccenr"
"01","84","01053","5","AIN","Ain"
"02","32","02408","5","AISNE","Aisne"
"03","84","03190","5","ALLIER","Allier"
"04","93","04070","4","ALPES-DE-HAUTE-PROVENCE","Alpes-de-Haute-Provence"
"05","93","05061","4","HAUTES-ALPES","Hautes-Alpes"
"06","93","06088","4","ALPES-MARITIMES","Alpes-Maritimes"
"07","84","07186","5","ARDECHE","Ardèche"
"08","44","08105","4","ARDENNES","Ardennes"
"09","76","09122","5","ARIEGE","Ariège"
"10","44","10387","5","AUBE","Aube"
"11","76","11069","5","AUDE","Aude"
"12","76","12202","5","AVEYRON","Aveyron"
"13","93","13055","4","BOUCHES-DU-RHONE","Bouches-du-Rhône"
"14","28","14118","2","CALVADOS","Calvados"
"15","84","15014","2","CANTAL","Cantal"
"16","75","16015","3","CHARENTE","Charente"
"17","75","17300","3","CHARENTE-MARITIME","Charente-Maritime"
"18","24","18033","2","CHER","Cher"
"19","75","19272","3","CORREZE","Corrèze"
"21","27","21231","3","COTE-D'OR","Côte-d'Or"
"22","53","22278","4","COTES-D'ARMOR","Côtes-d'Armor"
"23","75","23096","3","CREUSE","Creuse"
"24","75","24322","3","DORDOGNE","Dordogne"
"25","27","25056","2","DOUBS","Doubs"
"26","84","26362","3","DROME","Drôme"
"27","28","27229","5","EURE","Eure"
"28","24","28085","1","EURE-ET-LOIR","Eure-et-Loir"
"29","53","29232","2","FINISTERE","Finistère"
"2A","94","2A004","3","CORSE-DU-SUD","Corse-du-Sud"
"2B","94","2B033","3","HAUTE-CORSE","Haute-Corse"
"30","76","30189","2","GARD","Gard"
"31","76","31555","3","HAUTE-GARONNE","Haute-Garonne"
"32","76","32013","2","GERS","Gers"
"33","75","33063","3","GIRONDE","Gironde"
"34","76","34172","5","HERAULT","Hérault"
"35","53","35238","1","ILLE-ET-VILAINE","Ille-et-Vilaine"
"36","24","36044","5","INDRE","Indre"
"37","24","37261","1","INDRE-ET-LOIRE","Indre-et-Loire"
"38","84","38185","5","ISERE","Isère"
"39","27","39300","2","JURA","Jura"
"40","75","40192","4","LANDES","Landes"
"41","24","41018","2","LOIR-ET-CHER","Loir-et-Cher"
"42","84","42218","3","LOIRE","Loire"
"43","84","43157","3","HAUTE-LOIRE","Haute-Loire"
"44","52","44109","3","LOIRE-ATLANTIQUE","Loire-Atlantique"
"45","24","45234","2","LOIRET","Loiret"
"46","76","46042","2","LOT","Lot"
"47","75","47001","2","LOT-ET-GARONNE","Lot-et-Garonne"
"48","76","48095","3","LOZERE","Lozère"
"49","52","49007","2","MAINE-ET-LOIRE","Maine-et-Loire"
"50","28","50502","3","MANCHE","Manche"
"51","44","51108","3","MARNE","Marne"
"52","44","52121","3","HAUTE-MARNE","Haute-Marne"
"53","52","53130","3","MAYENNE","Mayenne"
"54","44","54395","0","MEURTHE-ET-MOSELLE","Meurthe-et-Moselle"
"55","44","55029","3","MEUSE","Meuse"
"56","53","56260","2","MORBIHAN","Morbihan"
"57","44","57463","3","MOSELLE","Moselle"
"58","27","58194","3","NIEVRE","Nièvre"
"59","32","59350","2","NORD","Nord"
"60","32","60057","5","OISE","Oise"
"61","28","61001","5","ORNE","Orne"
"62","32","62041","2","PAS-DE-CALAIS","Pas-de-Calais"
"63","84","63113","2","PUY-DE-DOME","Puy-de-Dôme"
"64","75","64445","4","PYRENEES-ATLANTIQUES","Pyrénées-Atlantiques"
"65","76","65440","4","HAUTES-PYRENEES","Hautes-Pyrénées"
"66","76","66136","4","PYRENEES-ORIENTALES","Pyrénées-Orientales"
"67","44","67482","2","BAS-RHIN","Bas-Rhin"
"68","44","68066","2","HAUT-RHIN","Haut-Rhin"
"69","84","69123","2","RHONE","Rhône"
"70","27","70550","3","HAUTE-SAONE","Haute-Saône"
"71","27","71270","0","SAONE-ET-LOIRE","Saône-et-Loire"
"72","52","72181","3","SARTHE","Sarthe"
"73","84","73065","3","SAVOIE","Savoie"
"74","84","74010","3","HAUTE-SAVOIE","Haute-Savoie"
"75","11","75056","0","PARIS","Paris"
"76","28","76540","3","SEINE-MARITIME","Seine-Maritime"
"77","11","77288","0","SEINE-ET-MARNE","Seine-et-Marne"
"78","11","78646","4","YVELINES","Yvelines"
"79","75","79191","4","DEUX-SEVRES","Deux-Sèvres"
"80","32","80021","3","SOMME","Somme"
"81","76","81004","2","TARN","Tarn"
"82","76","82121","2","TARN-ET-GARONNE","Tarn-et-Garonne"
"83","93","83137","2","VAR","Var"
"84","93","84007","2","VAUCLUSE","Vaucluse"
"85","52","85191","3","VENDEE","Vendée"
"86","75","86194","3","VIENNE","Vienne"
"87","75","87085","3","HAUTE-VIENNE","Haute-Vienne"
"88","44","88160","4","VOSGES","Vosges"
"89","27","89024","5","YONNE","Yonne"
"90","27","90010","2","TERRITOIRE DE BELFORT","Territoire de Belfort"
"91","11","91228","5","ESSONNE","Essonne"
"92","11","92050","4","HAUTS-DE-SEINE","Hauts-de-Seine"
"93","11","93008","3","SEINE-SAINT-DENIS","Seine-Saint-Denis"
"94","11","94028","2","VAL-DE-MARNE","Val-de-Marne"
"95","11","95500","2","VAL-D'OISE","Val-d'Oise"
"971","01","97105","3","GUADELOUPE","Guadeloupe"
"972","02","97209","3","MARTINIQUE","Martinique"
"973","03","97302","3","GUYANE","Guyane"
"974","04","97411","0","LA REUNION","La Réunion"
"975","05","97502","0","SAINT-PIERRE-ET-MIQUELON","Saint-Pierre-et-Miquelon"
"976","06","97608","0","MAYOTTE","Mayotte"
