"id","fk_departement","fk_commune_cheflieu","fk_tncc","ncc","nccenr"
"011","01","01034","0","BELLEY","Belley"
"012","01","01053","0","BOURG-EN-BRESSE","Bourg-en-Bresse"
"013","01","01173","0","GEX","Gex"
"014","01","01269","0","NANTUA","Nantua"
"021","02","02168","0","CHATEAU-THIERRY","Château-Thierry"
"022","02","02408","0","LAON","Laon"
"023","02","02691","0","SAINT-QUENTIN","Saint-Quentin"
"024","02","02722","0","SOISSONS","Soissons"
"025","02","02789","0","VERVINS","Vervins"
"031","03","03185","0","MONTLUCON","Montluçon"
"032","03","03190","0","MOULINS","Moulins"
"033","03","03310","0","VICHY","Vichy"
"041","04","04019","0","BARCELONNETTE","Barcelonnette"
"042","04","04039","0","CASTELLANE","Castellane"
"043","04","04070","0","DIGNE-LES-BAINS","Digne-les-Bains"
"044","04","04088","0","FORCALQUIER","Forcalquier"
"051","05","05023","0","BRIANCON","Briançon"
"052","05","05061","0","GAP","Gap"
"061","06","06069","0","GRASSE","Grasse"
"062","06","06088","0","NICE","Nice"
"071","07","07132","0","LARGENTIERE","Largentière"
"072","07","07186","0","PRIVAS","Privas"
"073","07","07324","0","TOURNON-SUR-RHONE","Tournon-sur-Rhône"
"081","08","08105","0","CHARLEVILLE-MEZIERES","Charleville-Mézières"
"082","08","08362","0","RETHEL","Rethel"
"083","08","08409","0","SEDAN","Sedan"
"084","08","08490","0","VOUZIERS","Vouziers"
"091","09","09122","0","FOIX","Foix"
"092","09","09225","0","PAMIERS","Pamiers"
"093","09","09261","0","SAINT-GIRONS","Saint-Girons"
"101","10","10033","0","BAR-SUR-AUBE","Bar-sur-Aube"
"102","10","10268","0","NOGENT-SUR-SEINE","Nogent-sur-Seine"
"103","10","10387","0","TROYES","Troyes"
"111","11","11069","0","CARCASSONNE","Carcassonne"
"112","11","11206","0","LIMOUX","Limoux"
"113","11","11262","0","NARBONNE","Narbonne"
"121","12","12145","0","MILLAU","Millau"
"122","12","12202","0","RODEZ","Rodez"
"123","12","12300","0","VILLEFRANCHE-DE-ROUERGUE","Villefranche-de-Rouergue"
"131","13","13001","1","AIX-EN-PROVENCE","Aix-en-Provence"
"132","13","13004","1","ARLES","Arles"
"133","13","13055","0","MARSEILLE","Marseille"
"134","13","13047","1","ISTRES","Istres"
"141","14","14047","0","BAYEUX","Bayeux"
"142","14","14118","0","CAEN","Caen"
"143","14","14366","0","LISIEUX","Lisieux"
"144","14","14762","0","VIRE","Vire"
"151","15","15014","1","AURILLAC","Aurillac"
"152","15","15120","0","MAURIAC","Mauriac"
"153","15","15187","0","SAINT-FLOUR","Saint-Flour"
"161","16","16015","1","ANGOULEME","Angoulême"
"162","16","16102","0","COGNAC","Cognac"
"163","16","16106","0","CONFOLENS","Confolens"
"171","17","17197","0","JONZAC","Jonzac"
"172","17","17299","0","ROCHEFORT","Rochefort"
"173","17","17300","3","ROCHELLE","Rochelle"
"174","17","17415","0","SAINTES","Saintes"
"175","17","17347","0","SAINT-JEAN-D'ANGELY","Saint-Jean-d'Angély"
"181","18","18033","0","BOURGES","Bourges"
"182","18","18197","0","SAINT-AMAND-MONTROND","Saint-Amand-Montrond"
"183","18","18279","0","VIERZON","Vierzon"
"191","19","19031","0","BRIVE-LA-GAILLARDE","Brive-la-Gaillarde"
"192","19","19272","0","TULLE","Tulle"
"193","19","19275","1","USSEL","Ussel"
"211","21","21054","0","BEAUNE","Beaune"
"212","21","21231","0","DIJON","Dijon"
"213","21","21425","0","MONTBARD","Montbard"
"221","22","22050","0","DINAN","Dinan"
"222","22","22070","0","GUINGAMP","Guingamp"
"223","22","22113","0","LANNION","Lannion"
"224","22","22278","0","SAINT-BRIEUC","Saint-Brieuc"
"231","23","23008","1","AUBUSSON","Aubusson"
"232","23","23096","0","GUERET","Guéret"
"241","24","24037","0","BERGERAC","Bergerac"
"242","24","24311","0","NONTRON","Nontron"
"243","24","24322","0","PERIGUEUX","Périgueux"
"244","24","24520","0","SARLAT-LA-CANEDA","Sarlat-la-Canéda"
"251","25","25056","0","BESANCON","Besançon"
"252","25","25388","0","MONTBELIARD","Montbéliard"
"253","25","25462","0","PONTARLIER","Pontarlier"
"261","26","26113","0","DIE","Die"
"262","26","26220","0","NYONS","Nyons"
"263","26","26362","0","VALENCE","Valence"
"271","27","27016","4","ANDELYS","Andelys"
"272","27","27056","0","BERNAY","Bernay"
"273","27","27229","1","EVREUX","Évreux"
"281","28","28085","0","CHARTRES","Chartres"
"282","28","28088","0","CHATEAUDUN","Châteaudun"
"283","28","28134","0","DREUX","Dreux"
"284","28","28280","0","NOGENT-LE-ROTROU","Nogent-le-Rotrou"
"291","29","29019","0","BREST","Brest"
"292","29","29026","0","CHATEAULIN","Châteaulin"
"293","29","29151","0","MORLAIX","Morlaix"
"294","29","29232","0","QUIMPER","Quimper"
"2A1","2A","2A004","1","AJACCIO","Ajaccio"
"2A4","2A","2A272","0","SARTENE","Sartène"
"2B2","2B","2B033","0","BASTIA","Bastia"
"2B3","2B","2B096","0","CORTE","Corte"
"2B5","2B","2B050","0","CALVI","Calvi"
"301","30","30007","1","ALES","Alès"
"302","30","30189","0","NIMES","Nîmes"
"303","30","30350","2","VIGAN","Vigan"
"311","31","31395","0","MURET","Muret"
"312","31","31483","0","SAINT-GAUDENS","Saint-Gaudens"
"313","31","31555","0","TOULOUSE","Toulouse"
"321","32","32013","1","AUCH","Auch"
"322","32","32107","0","CONDOM","Condom"
"323","32","32256","0","MIRANDE","Mirande"
"331","33","33058","0","BLAYE","Blaye"
"332","33","33063","0","BORDEAUX","Bordeaux"
"333","33","33227","0","LANGON","Langon"
"334","33","33240","0","LESPARRE-MEDOC","Lesparre-Médoc"
"335","33","33243","0","LIBOURNE","Libourne"
"341","34","34032","0","BEZIERS","Béziers"
"342","34","34142","0","LODEVE","Lodève"
"343","34","34172","0","MONTPELLIER","Montpellier"
"351","35","35115","0","FOUGERES","Fougères"
"352","35","35236","0","REDON","Redon"
"353","35","35238","0","RENNES","Rennes"
"354","35","35288","0","SAINT-MALO","Saint-Malo"
"361","36","36018","2","BLANC","Blanc"
"362","36","36044","0","CHATEAUROUX","Châteauroux"
"363","36","36046","3","CHATRE","Châtre"
"364","36","36088","1","ISSOUDUN","Issoudun"
"371","37","37072","0","CHINON","Chinon"
"372","37","37261","0","TOURS","Tours"
"373","37","37132","0","LOCHES","Loches"
"381","38","38185","0","GRENOBLE","Grenoble"
"382","38","38509","3","TOUR-DU-PIN","Tour-du-Pin"
"383","38","38544","0","VIENNE","Vienne"
"391","39","39198","0","DOLE","Dole"
"392","39","39300","0","LONS-LE-SAUNIER","Lons-le-Saunier"
"393","39","39478","0","SAINT-CLAUDE","Saint-Claude"
"401","40","40088","0","DAX","Dax"
"402","40","40192","0","MONT-DE-MARSAN","Mont-de-Marsan"
"411","41","41018","0","BLOIS","Blois"
"412","41","41269","0","VENDOME","Vendôme"
"413","41","41194","0","ROMORANTIN-LANTHENAY","Romorantin-Lanthenay"
"421","42","42147","0","MONTBRISON","Montbrison"
"422","42","42187","0","ROANNE","Roanne"
"423","42","42218","0","SAINT-ETIENNE","Saint-Étienne"
"431","43","43040","0","BRIOUDE","Brioude"
"432","43","43157","2","PUY-EN-VELAY","Puy-en-Velay"
"433","43","43268","1","YSSINGEAUX","Yssingeaux"
"441","44","44036","0","CHATEAUBRIANT","Châteaubriant"
"442","44","44109","0","NANTES","Nantes"
"443","44","44184","0","SAINT-NAZAIRE","Saint-Nazaire"
"444","44","44003","1","ANCENIS","Ancenis"
"451","45","45208","0","MONTARGIS","Montargis"
"452","45","45234","1","ORLEANS","Orléans"
"453","45","45252","0","PITHIVIERS","Pithiviers"
"461","46","46042","0","CAHORS","Cahors"
"462","46","46102","0","FIGEAC","Figeac"
"463","46","46127","0","GOURDON","Gourdon"
"471","47","47001","1","AGEN","Agen"
"472","47","47157","0","MARMANDE","Marmande"
"473","47","47323","0","VILLENEUVE-SUR-LOT","Villeneuve-sur-Lot"
"474","47","47195","0","NERAC","Nérac"
"481","48","48061","0","FLORAC","Florac"
"482","48","48095","0","MENDE","Mende"
"491","49","49007","1","ANGERS","Angers"
"492","49","49099","0","CHOLET","Cholet"
"493","49","49328","0","SAUMUR","Saumur"
"494","49","49331","0","SEGRE","Segré"
"501","50","50025","1","AVRANCHES","Avranches"
"502","50","50129","0","CHERBOURG-OCTEVILLE","Cherbourg-Octeville"
"503","50","50147","0","COUTANCES","Coutances"
"504","50","50502","0","SAINT-LO","Saint-Lô"
"511","51","51108","0","CHALONS-EN-CHAMPAGNE","Châlons-en-Champagne"
"512","51","51230","1","EPERNAY","Épernay"
"513","51","51454","0","REIMS","Reims"
"514","51","51649","0","VITRY-LE-FRANCOIS","Vitry-le-François"
"515","51","51507","0","SAINTE-MENEHOULD","Sainte-Menehould"
"521","52","52121","0","CHAUMONT","Chaumont"
"522","52","52269","0","LANGRES","Langres"
"523","52","52448","0","SAINT-DIZIER","Saint-Dizier"
"531","53","53062","0","CHATEAU-GONTIER","Château-Gontier"
"532","53","53130","0","LAVAL","Laval"
"533","53","53147","0","MAYENNE","Mayenne"
"541","54","54099","0","BRIEY","Briey"
"542","54","54329","0","LUNEVILLE","Lunéville"
"543","54","54395","0","NANCY","Nancy"
"544","54","54528","0","TOUL","Toul"
"551","55","55029","0","BAR-LE-DUC","Bar-le-Duc"
"552","55","55122","0","COMMERCY","Commercy"
"553","55","55545","0","VERDUN","Verdun"
"561","56","56121","0","LORIENT","Lorient"
"562","56","56178","0","PONTIVY","Pontivy"
"563","56","56260","0","VANNES","Vannes"
"571","57","57097","0","BOULAY-MOSELLE","Boulay-Moselle"
"572","57","57132","0","CHATEAU-SALINS","Château-Salins"
"573","57","57227","0","FORBACH","Forbach"
"574","57","57463","0","METZ-CAMPAGNE","Metz-Campagne"
"575","57","57630","0","SARREBOURG","Sarrebourg"
"576","57","57631","0","SARREGUEMINES","Sarreguemines"
"577","57","57672","0","THIONVILLE-EST","Thionville-Est"
"578","57","57672","0","THIONVILLE-OUEST","Thionville-Ouest"
"579","57","57463","0","METZ-VILLE","Metz-Ville"
"581","58","58062","0","CHATEAU-CHINON(VILLE)","Château-Chinon(Ville)"
"582","58","58079","0","CLAMECY","Clamecy"
"583","58","58194","0","NEVERS","Nevers"
"584","58","58086","0","COSNE-COURS-SUR-LOIRE","Cosne-Cours-sur-Loire"
"591","59","59036","1","AVESNES-SUR-HELPE","Avesnes-sur-Helpe"
"592","59","59122","0","CAMBRAI","Cambrai"
"593","59","59178","0","DOUAI","Douai"
"594","59","59183","0","DUNKERQUE","Dunkerque"
"595","59","59350","0","LILLE","Lille"
"596","59","59606","0","VALENCIENNES","Valenciennes"
"601","60","60057","0","BEAUVAIS","Beauvais"
"602","60","60157","0","CLERMONT","Clermont"
"603","60","60159","0","COMPIEGNE","Compiègne"
"604","60","60612","0","SENLIS","Senlis"
"611","61","61001","1","ALENCON","Alençon"
"612","61","61006","1","ARGENTAN","Argentan"
"613","61","61293","0","MORTAGNE-AU-PERCHE","Mortagne-au-Perche"
"621","62","62041","1","ARRAS","Arras"
"622","62","62119","0","BETHUNE","Béthune"
"623","62","62160","0","BOULOGNE-SUR-MER","Boulogne-sur-Mer"
"624","62","62588","0","MONTREUIL","Montreuil"
"625","62","62765","0","SAINT-OMER","Saint-Omer"
"626","62","62193","0","CALAIS","Calais"
"627","62","62498","0","LENS","Lens"
"631","63","63003","1","AMBERT","Ambert"
"632","63","63113","0","CLERMONT-FERRAND","Clermont-Ferrand"
"633","63","63178","1","ISSOIRE","Issoire"
"634","63","63300","0","RIOM","Riom"
"635","63","63430","0","THIERS","Thiers"
"641","64","64102","0","BAYONNE","Bayonne"
"642","64","64422","1","OLORON-SAINTE-MARIE","Oloron-Sainte-Marie"
"643","64","64445","0","PAU","Pau"
"651","65","65025","1","ARGELES-GAZOST","Argelès-Gazost"
"652","65","65059","0","BAGNERES-DE-BIGORRE","Bagnères-de-Bigorre"
"653","65","65440","0","TARBES","Tarbes"
"661","66","66049","0","CERET","Céret"
"662","66","66136","0","PERPIGNAN","Perpignan"
"663","66","66149","0","PRADES","Prades"
"672","67","67180","0","HAGUENAU","Haguenau"
"673","67","67300","0","MOLSHEIM","Molsheim"
"674","67","67437","0","SAVERNE","Saverne"
"675","67","67462","0","SELESTAT-ERSTEIN","Sélestat-Erstein"
"676","67","67482","0","STRASBOURG-CAMPAGNE","Strasbourg-Campagne"
"677","67","67544","0","WISSEMBOURG","Wissembourg"
"678","67","67482","0","STRASBOURG-VILLE","Strasbourg-Ville"
"681","68","68004","1","ALTKIRCH","Altkirch"
"682","68","68066","0","COLMAR","Colmar"
"683","68","68112","0","GUEBWILLER","Guebwiller"
"684","68","68224","0","MULHOUSE","Mulhouse"
"685","68","68269","0","RIBEAUVILLE","Ribeauvillé"
"686","68","68334","0","THANN","Thann"
"691","69","69123","0","LYON","Lyon"
"692","69","69264","0","VILLEFRANCHE-SUR-SAONE","Villefranche-sur-Saône"
"701","70","70310","0","LURE","Lure"
"702","70","70550","0","VESOUL","Vesoul"
"711","71","71014","1","AUTUN","Autun"
"712","71","71076","0","CHALON-SUR-SAONE","Chalon-sur-Saône"
"713","71","71106","0","CHAROLLES","Charolles"
"714","71","71263","0","LOUHANS","Louhans"
"715","71","71270","0","MACON","Mâcon"
"721","72","72154","3","FLECHE","Flèche"
"722","72","72180","0","MAMERS","Mamers"
"723","72","72181","2","MANS","Mans"
"731","73","73011","1","ALBERTVILLE","Albertville"
"732","73","73065","0","CHAMBERY","Chambéry"
"733","73","73248","0","SAINT-JEAN-DE-MAURIENNE","Saint-Jean-de-Maurienne"
"741","74","74010","1","ANNECY","Annecy"
"742","74","74042","0","BONNEVILLE","Bonneville"
"743","74","74243","0","SAINT-JULIEN-EN-GENEVOIS","Saint-Julien-en-Genevois"
"744","74","74281","0","THONON-LES-BAINS","Thonon-les-Bains"
"751","75","75056","0","PARIS","Paris"
"761","76","76217","0","DIEPPE","Dieppe"
"762","76","76351","2","HAVRE","Havre"
"763","76","76540","0","ROUEN","Rouen"
"771","77","77284","0","MEAUX","Meaux"
"772","77","77288","0","MELUN","Melun"
"773","77","77379","0","PROVINS","Provins"
"774","77","77186","0","FONTAINEBLEAU","Fontainebleau"
"775","77","77468","0","TORCY","Torcy"
"781","78","78361","0","MANTES-LA-JOLIE","Mantes-la-Jolie"
"782","78","78517","0","RAMBOUILLET","Rambouillet"
"783","78","78551","0","SAINT-GERMAIN-EN-LAYE","Saint-Germain-en-Laye"
"784","78","78646","0","VERSAILLES","Versailles"
"791","79","79049","0","BRESSUIRE","Bressuire"
"792","79","79191","0","NIORT","Niort"
"793","79","79202","0","PARTHENAY","Parthenay"
"801","80","80001","1","ABBEVILLE","Abbeville"
"802","80","80021","1","AMIENS","Amiens"
"803","80","80561","0","MONTDIDIER","Montdidier"
"804","80","80620","0","PERONNE","Péronne"
"811","81","81004","1","ALBI","Albi"
"812","81","81065","0","CASTRES","Castres"
"821","82","82033","0","CASTELSARRASIN","Castelsarrasin"
"822","82","82121","0","MONTAUBAN","Montauban"
"831","83","83050","0","DRAGUIGNAN","Draguignan"
"832","83","83137","0","TOULON","Toulon"
"833","83","83023","0","BRIGNOLES","Brignoles"
"841","84","84003","1","APT","Apt"
"842","84","84007","1","AVIGNON","Avignon"
"843","84","84031","0","CARPENTRAS","Carpentras"
"851","85","85092","0","FONTENAY-LE-COMTE","Fontenay-le-Comte"
"852","85","85191","3","ROCHE-SUR-YON","Roche-sur-Yon"
"853","85","85194","4","SABLES-D'OLONNE","Sables-d'Olonne"
"861","86","86066","0","CHATELLERAULT","Châtellerault"
"862","86","86165","0","MONTMORILLON","Montmorillon"
"863","86","86194","0","POITIERS","Poitiers"
"871","87","87011","0","BELLAC","Bellac"
"872","87","87085","0","LIMOGES","Limoges"
"873","87","87126","0","ROCHECHOUART","Rochechouart"
"881","88","88160","1","EPINAL","Épinal"
"882","88","88321","0","NEUFCHATEAU","Neufchâteau"
"883","88","88413","0","SAINT-DIE-DES-VOSGES","Saint-Dié-des-Vosges"
"891","89","89024","1","AUXERRE","Auxerre"
"892","89","89025","1","AVALLON","Avallon"
"893","89","89387","0","SENS","Sens"
"901","90","90010","0","BELFORT","Belfort"
"911","91","91223","1","ETAMPES","Étampes"
"912","91","91228","1","EVRY","Évry"
"913","91","91477","0","PALAISEAU","Palaiseau"
"921","92","92002","1","ANTONY","Antony"
"922","92","92050","0","NANTERRE","Nanterre"
"923","92","92012","0","BOULOGNE-BILLANCOURT","Boulogne-Billancourt"
"931","93","93008","0","BOBIGNY","Bobigny"
"932","93","93062","2","RAINCY","Raincy"
"933","93","93066","0","SAINT-DENIS","Saint-Denis"
"941","94","94028","0","CRETEIL","Créteil"
"942","94","94052","0","NOGENT-SUR-MARNE","Nogent-sur-Marne"
"943","94","94038","5","HAY-LES-ROSES","Haÿ-les-Roses"
"951","95","95018","1","ARGENTEUIL","Argenteuil"
"952","95","95585","0","SARCELLES","Sarcelles"
"953","95","95500","0","PONTOISE","Pontoise"
"9711","971","97105","0","BASSE-TERRE","Basse-Terre"
"9712","971","97120","0","POINTE-A-PITRE","Pointe-à-Pitre"
"9713","971","97133","0","SAINT-MARTIN-SAINT-BARTHELEMY","Saint-Martin-Saint-Barthélemy"
"9721","972","97209","0","FORT-DE-FRANCE","Fort-de-France"
"9722","972","97230","3","TRINITE","Trinité"
"9723","972","97217","2","MARIN","Marin"
"9724","972","97225","0","SAINT-PIERRE","Saint-Pierre"
"9731","973","97302","0","CAYENNE","Cayenne"
"9732","973","97311","0","SAINT-LAURENT-DU-MARONI","Saint-Laurent-du-Maroni"
"9741","974","97411","0","SAINT-DENIS","Saint-Denis"
"9742","974","97416","0","SAINT-PIERRE","Saint-Pierre"
"9743","974","97410","0","SAINT-BENOIT","Saint-Benoît"
"9744","974","97415","0","SAINT-PAUL","Saint-Paul"
