"id","fk_pays","fk_commune_cheflieu","fk_tncc","ncc","nccenr"
"01","99100","97105","3","GUADELOUPE","Guadeloupe"
"02","99100","97209","3","MARTINIQUE","Martinique"
"03","99100","97302","3","GUYANE","Guyane"
"04","99100","97411","3","REUNION","Réunion"
"11","99100","75056","1","ILE-DE-FRANCE","Île-de-France"
"21","99100","51108","0","CHAMPAGNE-ARDENNE","Champagne-Ardenne"
"22","99100","80021","0","PICARDIE","Picardie"
"23","99100","76540","0","HAUTE-NORMANDIE","Haute-Normandie"
"24","99100","45234","2","CENTRE","Centre"
"25","99100","14118","0","BASSE-NORMANDIE","Basse-Normandie"
"26","99100","21231","0","BOURGOGNE","Bourgogne"
"31","99100","59350","2","NORD-PAS-DE-CALAIS","Nord-Pas-de-Calais"
"41","99100","54395","0","LORRAINE","Lorraine"
"42","99100","67482","1","ALSACE","Alsace"
"43","99100","25056","0","FRANCHE-COMTE","Franche-Comté"
"52","99100","44109","4","PAYS DE LA LOIRE","Pays de la Loire"
"53","99100","35238","0","BRETAGNE","Bretagne"
"54","99100","86194","2","POITOU-CHARENTES","Poitou-Charentes"
"72","99100","33063","1","AQUITAINE","Aquitaine"
"73","99100","31555","0","MIDI-PYRENEES","Midi-Pyrénées"
"74","99100","87085","2","LIMOUSIN","Limousin"
"82","99100","69123","2","RHONE-ALPES","Rhône-Alpes"
"83","99100","63113","1","AUVERGNE","Auvergne"
"91","99100","34172","2","LANGUEDOC-ROUSSILLON","Languedoc-Roussillon"
"93","99100","13055","0","PROVENCE-ALPES-COTE D'AZUR","Provence-Alpes-Côte d'Azur"
"94","99100","2A004","0","CORSE","Corse"
